GFORTRAN module version '9' created from IRPF90_temp/Superdet.main.irp.module.F90
MD5:7528e04df84f9504a3bb9826fc03aac3 -- If you edit this, you'll get what you deserve.

(() () () () () () () () () () () () () () () () () () () () () () () ()
() () ())

()

()

()

()

()

(2 'superdetdotmain_mod' 'superdetdotmain_mod' '' 1 ((MODULE
UNKNOWN-INTENT UNKNOWN-PROC UNKNOWN UNKNOWN 0 0) (UNKNOWN 0 0 0 0
UNKNOWN ()) 0 0 () () 0 () () () 0 0)
)

('superdetdotmain_mod' 0 2)
