GFORTRAN module version '9' created from IRPF90_temp/superdet.irp.module.F90
MD5:992bc4897208713d8ed37978be26815b -- If you edit this, you'll get what you deserve.

(() () () () () () () () () () () () () () () () () () () () () () () ()
() () ())

()

()

()

()

()

(2 'superdet_coefs' 'superdet_mod' '' 1 ((VARIABLE UNKNOWN-INTENT
UNKNOWN-PROC UNKNOWN IMPLICIT-SAVE 0 0 ALLOCATABLE DIMENSION) (REAL 8 0
0 0 REAL ()) 0 0 () (2 0 DEFERRED () () () ()) 0 () () () 0 0)
3 'superdet_coefs_is_built' 'superdet_mod' '' 1 ((VARIABLE
UNKNOWN-INTENT UNKNOWN-PROC UNKNOWN IMPLICIT-SAVE 0 0) (LOGICAL 4 0 0 0
LOGICAL ()) 0 0 () () 0 () () () 0 0)
4 'superdet_mod' 'superdet_mod' '' 1 ((MODULE UNKNOWN-INTENT
UNKNOWN-PROC UNKNOWN UNKNOWN 0 0) (UNKNOWN 0 0 0 0 UNKNOWN ()) 0 0 () ()
0 () () () 0 0)
5 'superdet_n_act' 'superdet_mod' '' 1 ((VARIABLE UNKNOWN-INTENT
UNKNOWN-PROC UNKNOWN IMPLICIT-SAVE 0 0) (INTEGER 4 0 0 0 INTEGER ()) 0 0
() () 0 () () () 0 0)
6 'superdet_n_act_is_built' 'superdet_mod' '' 1 ((VARIABLE
UNKNOWN-INTENT UNKNOWN-PROC UNKNOWN IMPLICIT-SAVE 0 0) (LOGICAL 4 0 0 0
LOGICAL ()) 0 0 () () 0 () () () 0 0)
)

('superdet_coefs' 0 2 'superdet_coefs_is_built' 0 3 'superdet_mod' 0 4
'superdet_n_act' 0 5 'superdet_n_act_is_built' 0 6)
